{"count":198,"next":"https://api.doq.kz/api/v1/doctors/?city=1&expand=services%2Cclinic_branches&limit=3&offset=3&service=97","previous":null,"results":[{"academic_status":null,"additional_info":null,"avatar_url":"https://thumbor.doq.kz/G0oZ4QAj7ZxGlFWGA0UBqNVRGy4=/200x200/smart/filters:ffr()/media/doctors/kondrashova-anastasiya_AsJC0jV.webp?_v=1","experience":22,"gender":0,"gender_display":"Женщина","id":5144,"is_active":true,"feedback_count":292,"feedback_score":9.973861386138614,"languages":["kk","ru"],"name":"Кондрашова Анастасия Владимировна","offline_booking_enabled":false,"science_degree":null,"slug":"kondrashova-anastasiya","clinic_branches":[{"address":"ул. Ахмета Жубанова 10 А","city":1,"city_area":{"id":90,"name":"Байконурский район","city":1,"slug":"baykonurskiy","sitemap_index":false},"clinic":87,"direct_call_phone":null,"feedback_count":982,"feedback_score":9.669125748502994,"id":1166,"location":{"lat":51.162234,"lng":71.460693},"name":"MedStar","phones":["+77005504205"],"slug":"medstar-zhubanova","clinic_slug":"medstar","closest_stations":[]}],"services":[{"age_from":0,"age_to":216,"appointment_conditions":"Запись в клинику по предоплате. \r\nДля этого вам в ближайшее время позвонит администратор клиники.","avg_waiting_time":0.0,"base_price":8000,"boost":null,"clinic_branch":1166,"discount":0,"discount_amount":0,"discount_is_percent":true,"discount_percent":0,"discount_price":8000,"doctor":5144,"id":114765,"insurances":[],"is_active":true,"minutes_before_appointment":30,"nearest_slot_datetime":"2026-06-27T13:00:00+05:00","on_walk_in_basis":false,"price":8000,"price_conditions":"","score":0.4163288590604027,"service":{"adult_service":null,"alternate_name":"","id":788,"is_for_children":false,"name":"УЗИ щитовидной железы","slug":"uzi-shchitovidnoy-zhelezy","type":"procedure"},"total":8000,"qualification":null,"qualification_display":null,"feedback_count":1,"feedback_score":10.0},{"age_from":0,"age_to":216,"appointment_conditions":"Запись в клинику по предоплате. \r\nДля этого вам в ближайшее время позвонит администратор клиники.","avg_waiting_time":0.0,"base_price":8000,"boost":null,"clinic_branch":1166,"discount":0,"discount_amount":0,"discount_is_percent":true,"discount_percent":0,"discount_price":8000,"doctor":5144,"id":114763,"insurances":[],"is_active":true,"minutes_before_appointment":30,"nearest_slot_datetime":"2026-06-27T13:00:00+05:00","on_walk_in_basis":false,"price":8000,"price_conditions":"","score":0.32221472392638034,"service":{"adult_service":null,"alternate_name":"","id":694,"is_for_children":false,"name":"УЗИ молочных желез","slug":"uzi-molochnyh-zhelez","type":"procedure"},"total":8000,"qualification":null,"qualification_display":null,"feedback_count":0,"feedback_score":0.0},{"age_from":0,"age_to":216,"appointment_conditions":"Запись в клинику по предоплате. \r\nДля этого вам в ближайшее время позвонит администратор клиники.","avg_waiting_time":0.0,"base_price":8000,"boost":null,"clinic_branch":1166,"discount":0,"discount_amount":0,"discount_is_percent":true,"discount_percent":0,"discount_price":8000,"doctor":5144,"id":114762,"insurances":[],"is_active":true,"minutes_before_appointment":30,"nearest_slot_datetime":"2026-06-27T13:00:00+05:00","on_walk_in_basis":false,"price":8000,"price_conditions":"","score":0.172,"service":{"adult_service":null,"alternate_name":"","id":840,"is_for_children":false,"name":"УЗИ желчного пузыря","slug":"uzi-zhelchnogo-puzyrya","type":"procedure"},"total":8000,"qualification":null,"qualification_display":null,"feedback_count":0,"feedback_score":0.0},{"age_from":0,"age_to":216,"appointment_conditions":"Запись в клинику по предоплате. \r\nДля этого вам в ближайшее время позвонит администратор клиники.","avg_waiting_time":0.0,"base_price":8000,"boost":null,"clinic_branch":1166,"discount":0,"discount_amount":0,"discount_is_percent":true,"discount_percent":0,"discount_price":8000,"doctor":5144,"id":114761,"insurances":[],"is_active":true,"minutes_before_appointment":30,"nearest_slot_datetime":"2026-06-27T13:00:00+05:00","on_walk_in_basis":false,"price":8000,"price_conditions":"","score":0.667539879205691,"service":{"adult_service":null,"alternate_name":"","id":822,"is_for_children":false,"name":"УЗИ брюшной полости","slug":"uzi-bryushnoy-polosti","type":"procedure"},"total":8000,"qualification":null,"qualification_display":null,"feedback_count":23,"feedback_score":10.0},{"age_from":null,"age_to":null,"appointment_conditions":"Запись в клинику по предоплате. \r\nДля этого вам в ближайшее время позвонит администратор клиники.","avg_waiting_time":0.0,"base_price":8000,"boost":null,"clinic_branch":1166,"discount":0,"discount_amount":0,"discount_is_percent":false,"discount_percent":0,"discount_price":8000,"doctor":5144,"id":19837,"insurances":[],"is_active":true,"minutes_before_appointment":30,"nearest_slot_datetime":"2026-06-27T13:00:00+05:00","on_walk_in_basis":false,"price":8000,"price_conditions":"","score":0.5122620842589375,"service":{"adult_service":null,"alternate_name":"","id":53,"is_for_children":false,"name":"УЗИ-специалист","slug":"uzi-spetsialist","type":"initial-appointment"},"total":8000,"qualification":null,"qualification_display":null,"feedback_count":6,"feedback_score":9.82905982905983},{"age_from":0,"age_to":216,"appointment_conditions":"Запись в клинику по предоплате. \r\nДля этого вам в ближайшее время позвонит администратор клиники.","avg_waiting_time":0.0,"base_price":8000,"boost":null,"clinic_branch":1166,"discount":0,"discount_amount":0,"discount_is_percent":true,"discount_percent":0,"discount_price":8000,"doctor":5144,"id":114767,"insurances":[],"is_active":true,"minutes_before_appointment":30,"nearest_slot_datetime":"2026-06-27T13:00:00+05:00","on_walk_in_basis":false,"price":8000,"price_conditions":"","score":0.172,"service":{"adult_service":null,"alternate_name":"","id":427,"is_for_children":false,"name":"УЗИ надпочечников","slug":"uzi-nadpochechnikov","type":"procedure"},"total":8000,"qualification":null,"qualification_display":null,"feedback_count":0,"feedback_score":0.0},{"age_from":null,"age_to":null,"appointment_conditions":"Запись в клинику по предоплате. \r\nДля этого вам в ближайшее время позвонит администратор клиники.","avg_waiting_time":0.0,"base_price":8000,"boost":null,"clinic_branch":1166,"discount":0,"discount_amount":0,"discount_is_percent":true,"discount_percent":0,"discount_price":8000,"doctor":5144,"id":114768,"insurances":[],"is_active":true,"minutes_before_appointment":30,"nearest_slot_datetime":"2026-06-27T13:00:00+05:00","on_walk_in_basis":false,"price":8000,"price_conditions":"","score":0.3726862745098039,"service":{"adult_service":null,"alternate_name":"","id":513,"is_for_children":false,"name":"УЗИ мягких тканей","slug":"uzi-myagkih-tkaney","type":"procedure"},"total":8000,"qualification":null,"qualification_display":null,"feedback_count":3,"feedback_score":9.666666666666666},{"age_from":0,"age_to":216,"appointment_conditions":"Запись в клинику по предоплате. \r\nДля этого вам в ближайшее время позвонит администратор клиники.","avg_waiting_time":0.0,"base_price":8000,"boost":null,"clinic_branch":1166,"discount":0,"discount_amount":0,"discount_is_percent":true,"discount_percent":0,"discount_price":8000,"doctor":5144,"id":114766,"insurances":[],"is_active":true,"minutes_before_appointment":30,"nearest_slot_datetime":"2026-06-27T13:00:00+05:00","on_walk_in_basis":false,"price":8000,"price_conditions":"","score":0.3231864406779661,"service":{"adult_service":null,"alternate_name":"","id":425,"is_for_children":false,"name":"УЗИ почек","slug":"uzi-pochek","type":"procedure"},"total":8000,"qualification":null,"qualification_display":null,"feedback_count":1,"feedback_score":8.0},{"age_from":null,"age_to":null,"appointment_conditions":"Запись в клинику по предоплате. \r\nДля этого вам в ближайшее время позвонит администратор клиники.","avg_waiting_time":0.0,"base_price":12000,"boost":null,"clinic_branch":1166,"discount":0,"discount_amount":0,"discount_is_percent":false,"discount_percent":0,"discount_price":12000,"doctor":5144,"id":28145,"insurances":[],"is_active":true,"minutes_before_appointment":60,"nearest_slot_datetime":"2026-06-27T13:00:00+05:00","on_walk_in_basis":false,"price":12000,"price_conditions":"","score":0.8011988031759757,"service":{"adult_service":null,"alternate_name":"","id":97,"is_for_children":false,"name":"Терапевт","slug":"terapevt","type":"initial-appointment"},"total":12000,"qualification":null,"qualification_display":null,"feedback_count":251,"feedback_score":9.926930693069307}],"score":0.8011988031759757},{"academic_status":null,"additional_info":null,"avatar_url":"https://thumbor.doq.kz/U3ItMCgYkqEMRfK4F-GLKBUfY0E=/200x200/smart/filters:ffr()/media/doctors/cropped-%D0%A1%D0%B0%D1%82%D1%8B%D0%BC%D0%B1%D0%B5%D0%BA%D0%BE%D0%B2%D0%B0_%D0%9A%D1%8B%D0%BC%D0%B1%D0%B0%D1%82_%D0%9A%D1%83%D0%BB%D0%B1%D0%B0%D0%B5%D0%B2%D0%BD%D0%B0_jy2ri8p_SYBnPmy_resized_1vUKHqo.webp?_v=1","experience":13,"gender":1,"gender_display":"Мужчина","id":7858,"is_active":true,"feedback_count":882,"feedback_score":9.665940594059405,"languages":["kk","ru"],"name":"Сатымбекова Кымбат Кулбаевна","offline_booking_enabled":false,"science_degree":null,"slug":"satymbekova-kymbat","clinic_branches":[{"address":"ул. Куйши Дина, 9","city":1,"city_area":{"id":91,"name":"Алматинский район","city":1,"slug":"almatinskiy","sitemap_index":false},"clinic":649,"direct_call_phone":null,"feedback_count":11229,"feedback_score":8.95897005988024,"id":973,"location":{"lat":51.146342,"lng":71.466793},"name":"ЭМИРМЕД на Куйши Дина","phones":["+77470000103"],"slug":"emirmed-kuishi-dina","clinic_slug":"emirmed-astana","closest_stations":[]}],"services":[{"age_from":null,"age_to":null,"appointment_conditions":"","avg_waiting_time":1.6666666666666667,"base_price":14000,"boost":null,"clinic_branch":973,"discount":50,"discount_amount":7000,"discount_is_percent":true,"discount_percent":50,"discount_price":7000,"doctor":7858,"id":16219,"insurances":[],"is_active":true,"minutes_before_appointment":0,"nearest_slot_datetime":"2026-06-27T09:00:00+05:00","on_walk_in_basis":true,"price":14000,"price_conditions":"Скидка действует только на первичный приём; повторные визиты оплачиваются по прайсу клиники. Чтобы получить скидку, покажите SMS‑сообщение, которое получите после записи.","score":0.7460622742707189,"service":{"adult_service":null,"alternate_name":"","id":24,"is_for_children":false,"name":"Инфекционист","slug":"infektsionist","type":"initial-appointment"},"total":7000,"qualification":null,"qualification_display":null,"feedback_count":107,"feedback_score":9.258217821782178},{"age_from":0,"age_to":216,"appointment_conditions":"","avg_waiting_time":4.090909090909091,"base_price":14000,"boost":null,"clinic_branch":973,"discount":50,"discount_amount":7000,"discount_is_percent":true,"discount_percent":50,"discount_price":7000,"doctor":7858,"id":16220,"insurances":[],"is_active":true,"minutes_before_appointment":0,"nearest_slot_datetime":"2026-06-27T09:00:00+05:00","on_walk_in_basis":true,"price":14000,"price_conditions":"Скидка действует только на первичный приём; повторные визиты оплачиваются по прайсу клиники. Чтобы получить скидку, покажите SMS‑сообщение, которое получите после записи.","score":0.9185910951106189,"service":{"adult_service":24,"alternate_name":"","id":123,"is_for_children":true,"name":"Детский инфекционист","slug":"infektsionist/deti","type":"initial-appointment"},"total":7000,"qualification":null,"qualification_display":null,"feedback_count":51,"feedback_score":9.758431372549019},{"age_from":null,"age_to":null,"appointment_conditions":"","avg_waiting_time":0.0,"base_price":14000,"boost":null,"clinic_branch":973,"discount":50,"discount_amount":7000,"discount_is_percent":true,"discount_percent":50,"discount_price":7000,"doctor":7858,"id":17421,"insurances":[],"is_active":true,"minutes_before_appointment":0,"nearest_slot_datetime":"2026-06-27T09:00:00+05:00","on_walk_in_basis":true,"price":14000,"price_conditions":"Скидка действует только на первичный приём; повторные визиты оплачиваются по прайсу клиники. Чтобы получить скидку, покажите SMS‑сообщение, которое получите после записи.","score":0.8108938205729377,"service":{"adult_service":null,"alternate_name":"","id":15,"is_for_children":false,"name":"Гастроэнтеролог","slug":"gastroenterolog","type":"initial-appointment"},"total":7000,"qualification":null,"qualification_display":null,"feedback_count":93,"feedback_score":9.777379530067702},{"age_from":0,"age_to":216,"appointment_conditions":"","avg_waiting_time":6.5625,"base_price":14000,"boost":null,"clinic_branch":973,"discount":50,"discount_amount":7000,"discount_is_percent":true,"discount_percent":50,"discount_price":7000,"doctor":7858,"id":16193,"insurances":[],"is_active":true,"minutes_before_appointment":0,"nearest_slot_datetime":"2026-06-27T09:00:00+05:00","on_walk_in_basis":true,"price":14000,"price_conditions":"Скидка действует только на первичный приём; повторные визиты оплачиваются по прайсу клиники. Чтобы получить скидку, покажите SMS‑сообщение, которое получите после записи.","score":0.7981808011568178,"service":{"adult_service":178,"alternate_name":"","id":178,"is_for_children":true,"name":"Педиатр","slug":"pediatr","type":"initial-appointment"},"total":7000,"qualification":null,"qualification_display":null,"feedback_count":109,"feedback_score":9.485940594059405},{"age_from":null,"age_to":null,"appointment_conditions":"","avg_waiting_time":10.0,"base_price":14000,"boost":null,"clinic_branch":973,"discount":50,"discount_amount":7000,"discount_is_percent":true,"discount_percent":50,"discount_price":7000,"doctor":7858,"id":17425,"insurances":[],"is_active":true,"minutes_before_appointment":0,"nearest_slot_datetime":"2026-06-27T09:00:00+05:00","on_walk_in_basis":true,"price":14000,"price_conditions":"Скидка действует только на первичный приём; повторные визиты оплачиваются по прайсу клиники. Чтобы получить скидку, покажите SMS‑сообщение, которое получите после записи.","score":0.7597890498985541,"service":{"adult_service":null,"alternate_name":"","id":26,"is_for_children":false,"name":"Кардиолог","slug":"kardiolog","type":"initial-appointment"},"total":7000,"qualification":null,"qualification_display":null,"feedback_count":52,"feedback_score":9.676045431078988},{"age_from":null,"age_to":null,"appointment_conditions":"","avg_waiting_time":0.0,"base_price":14000,"boost":null,"clinic_branch":973,"discount":50,"discount_amount":7000,"discount_is_percent":true,"discount_percent":50,"discount_price":7000,"doctor":7858,"id":18179,"insurances":[],"is_active":true,"minutes_before_appointment":0,"nearest_slot_datetime":"2026-06-27T09:00:00+05:00","on_walk_in_basis":true,"price":14000,"price_conditions":"Скидка действует только на первичный приём; повторные визиты оплачиваются по прайсу клиники. Чтобы получить скидку, покажите SMS‑сообщение, которое получите после записи.","score":0.6695067742464403,"service":{"adult_service":null,"alternate_name":"","id":35,"is_for_children":false,"name":"Паразитолог","slug":"parazitolog","type":"initial-appointment"},"total":7000,"qualification":null,"qualification_display":null,"feedback_count":9,"feedback_score":9.652777777777779},{"age_from":0,"age_to":216,"appointment_conditions":"","avg_waiting_time":2.3076923076923075,"base_price":14000,"boost":null,"clinic_branch":973,"discount":50,"discount_amount":7000,"discount_is_percent":true,"discount_percent":50,"discount_price":7000,"doctor":7858,"id":17422,"insurances":[],"is_active":true,"minutes_before_appointment":0,"nearest_slot_datetime":"2026-06-27T09:00:00+05:00","on_walk_in_basis":true,"price":14000,"price_conditions":"Скидка действует только на первичный приём; повторные визиты оплачиваются по прайсу клиники. Чтобы получить скидку, покажите SMS‑сообщение, которое получите после записи.","score":0.7617490064599686,"service":{"adult_service":15,"alternate_name":"","id":114,"is_for_children":true,"name":"Детский гастроэнтеролог","slug":"gastroenterolog/deti","type":"initial-appointment"},"total":7000,"qualification":null,"qualification_display":null,"feedback_count":47,"feedback_score":9.463663995578889},{"age_from":null,"age_to":null,"appointment_conditions":"","avg_waiting_time":4.811320754716981,"base_price":14000,"boost":null,"clinic_branch":973,"discount":50,"discount_amount":7000,"discount_is_percent":true,"discount_percent":50,"discount_price":7000,"doctor":7858,"id":16245,"insurances":[],"is_active":true,"minutes_before_appointment":0,"nearest_slot_datetime":"2026-06-27T09:00:00+05:00","on_walk_in_basis":true,"price":14000,"price_conditions":"Скидка действует только на первичный приём; повторные визиты оплачиваются по прайсу клиники. Чтобы получить скидку, покажите SMS‑сообщение, которое получите после записи.","score":0.7924092999719233,"service":{"adult_service":null,"alternate_name":"","id":97,"is_for_children":false,"name":"Терапевт","slug":"terapevt","type":"initial-appointment"},"total":7000,"qualification":null,"qualification_display":null,"feedback_count":187,"feedback_score":9.604950495049504},{"age_from":0,"age_to":216,"appointment_conditions":"","avg_waiting_time":0.0,"base_price":14000,"boost":null,"clinic_branch":973,"discount":50,"discount_amount":7000,"discount_is_percent":true,"discount_percent":50,"discount_price":7000,"doctor":7858,"id":18180,"insurances":[],"is_active":true,"minutes_before_appointment":0,"nearest_slot_datetime":"2026-06-27T09:00:00+05:00","on_walk_in_basis":true,"price":14000,"price_conditions":"Скидка действует только на первичный приём; повторные визиты оплачиваются по прайсу клиники. Чтобы получить скидку, покажите SMS‑сообщение, которое получите после записи.","score":0.6907272727272727,"service":{"adult_service":35,"alternate_name":"","id":134,"is_for_children":true,"name":"Детский паразитолог","slug":"parazitolog/deti","type":"initial-appointment"},"total":7000,"qualification":null,"qualification_display":null,"feedback_count":3,"feedback_score":10.0},{"age_from":null,"age_to":null,"appointment_conditions":"","avg_waiting_time":4.090909090909091,"base_price":14000,"boost":null,"clinic_branch":973,"discount":50,"discount_amount":7000,"discount_is_percent":true,"discount_percent":50,"discount_price":7000,"doctor":7858,"id":17908,"insurances":[],"is_active":true,"minutes_before_appointment":0,"nearest_slot_datetime":"2026-06-27T09:00:00+05:00","on_walk_in_basis":true,"price":14000,"price_conditions":"Скидка действует только на первичный приём; повторные визиты оплачиваются по прайсу клиники. Чтобы получить скидку, покажите SMS‑сообщение, которое получите после записи.","score":0.8206519399879578,"service":{"adult_service":null,"alternate_name":"","id":40,"is_for_children":false,"name":"Пульмонолог","slug":"pulmonolog","type":"initial-appointment"},"total":7000,"qualification":null,"qualification_display":null,"feedback_count":112,"feedback_score":9.497821782178217},{"age_from":0,"age_to":216,"appointment_conditions":"","avg_waiting_time":0.0,"base_price":14000,"boost":null,"clinic_branch":973,"discount":50,"discount_amount":7000,"discount_is_percent":true,"discount_percent":50,"discount_price":7000,"doctor":7858,"id":17909,"insurances":[],"is_active":true,"minutes_before_appointment":0,"nearest_slot_datetime":"2026-06-27T09:00:00+05:00","on_walk_in_basis":true,"price":14000,"price_conditions":"Скидка действует только на первичный приём; повторные визиты оплачиваются по прайсу клиники. Чтобы получить скидку, покажите SMS‑сообщение, которое получите после записи.","score":0.7376593886376834,"service":{"adult_service":40,"alternate_name":"","id":139,"is_for_children":true,"name":"Детский пульмонолог","slug":"pulmonolog/deti","type":"initial-appointment"},"total":7000,"qualification":null,"qualification_display":null,"feedback_count":38,"feedback_score":9.262835001614466}],"score":0.7924092999719233},{"academic_status":null,"additional_info":null,"avatar_url":"https://thumbor.doq.kz/vcXTUEVfsNBV2ZeQTDXPWKF6DFs=/200x200/smart/filters:ffr()/media/doctors/kabdulkakova-elvira.webp?_v=1","experience":11,"gender":0,"gender_display":"Женщина","id":11492,"is_active":true,"feedback_count":6,"feedback_score":9.664957264957264,"languages":["ru"],"name":"Кабдулкакова Эльвира Тортаевна","offline_booking_enabled":false,"science_degree":null,"slug":"kabdulkakova-elvira-tortaevna","clinic_branches":[{"address":"Запись на онлайн-консультацию","city":1,"city_area":null,"clinic":878,"direct_call_phone":null,"feedback_count":101,"feedback_score":9.272233223322333,"id":1497,"location":{"lat":51.1655126,"lng":71.4272222},"name":"Цифровая клиника – EmAI в Астане","phones":["‪+77077110303‬"],"slug":"cifrovaya-klinika-emai-astana","clinic_slug":"cifrovaya-klinika-emai","closest_stations":[]}],"services":[{"age_from":null,"age_to":null,"appointment_conditions":"Данный врач консультирует только онлайн. В ближайшее время клиника свяжется с вами для уточнения деталей записи","avg_waiting_time":0.0,"base_price":12000,"boost":null,"clinic_branch":1497,"discount":50,"discount_amount":6000,"discount_is_percent":true,"discount_percent":50,"discount_price":6000,"doctor":11492,"id":131806,"insurances":[],"is_active":true,"minutes_before_appointment":0,"nearest_slot_datetime":"2026-06-27T09:30:00+05:00","on_walk_in_basis":false,"price":12000,"price_conditions":"Данный врач консультирует только онлайн","score":0.7624466151907942,"service":{"adult_service":null,"alternate_name":"","id":97,"is_for_children":false,"name":"Терапевт","slug":"terapevt","type":"initial-appointment"},"total":6000,"qualification":1,"qualification_display":"Врач первой категории","feedback_count":6,"feedback_score":9.664957264957264},{"age_from":60,"age_to":216,"appointment_conditions":"","avg_waiting_time":0.0,"base_price":12000,"boost":"boost2","clinic_branch":1497,"discount":50,"discount_amount":6000,"discount_is_percent":true,"discount_percent":50,"discount_price":6000,"doctor":11492,"id":131807,"insurances":[],"is_active":true,"minutes_before_appointment":0,"nearest_slot_datetime":"2026-06-27T09:30:00+05:00","on_walk_in_basis":false,"price":12000,"price_conditions":"","score":0.6594930199164144,"service":{"adult_service":178,"alternate_name":"","id":178,"is_for_children":true,"name":"Педиатр","slug":"pediatr","type":"initial-appointment"},"total":6000,"qualification":1,"qualification_display":"Врач первой категории","feedback_count":0,"feedback_score":0.0}],"score":0.7624466151907942}]}